{
  "images" : [
    {
      "idiom" : "universal",
      "filename" : "FB-hand-right.png",
      "scale" : "1x"
    },
    {
      "idiom" : "universal",
      "filename" : "FB-hand-right@2x.png",
      "scale" : "2x"
    },
    {
      "idiom" : "universal",
      "filename" : "FB-hand-right@3x.png",
      "scale" : "3x"
    }
  ],
  "info" : {
    "version" : 1,
    "author" : "xcode"
  }
}